Prediction with trees and forests
…
1 WineQuality dataset

Lets start loading the required packages: tidyverse for data wrangling and plotting, BAdatasets for data and caret for machine learning.

library(tidyverse)
library(BAdatasets)
library(caret)

We will use the WineQuality dataset, that contains two datasets with chemical properties of red and white vinho verde wine samples, from the north of Portugal. Here we will use the dataset of red wines:

red <- WineQuality$red
red

## # A tibble: 1,599 x 12
##    `fixed acidity` `volatile acidi `citric acid` `residual sugar`
##              <dbl>            <dbl>         <dbl>            <dbl>
##  1             7.4            0.7            0                 1.9
##  2             7.8            0.88           0                 2.6
##  3             7.8            0.76           0.04              2.3
##  4            11.2            0.28           0.56              1.9
##  5             7.4            0.7            0                 1.9
##  6             7.4            0.66           0                 1.8
##  7             7.9            0.6            0.06              1.6
##  8             7.3            0.65           0                 1.2
##  9             7.8            0.580          0.02              2  
## 10             7.5            0.5            0.36              6.1
## #  with 1,589 more rows, and 8 more variables: chlorides <dbl>, `free
## #   sulfur dioxide` <dbl>, `total sulfur dioxide` <dbl>, density <dbl>,
## #   pH <dbl>, sulphates <dbl>, alcohol <dbl>, quality <dbl>
…
